<svg width="28" height="28" viewBox="0 0 28 28" fill="none"
    xmlns="http://www.w3.org/2000/svg">
    <path d="M10.6566 24.2356V20.6682C10.6566 19.7576 11.4002 19.0194 12.3175 19.0194H15.6707C16.1112 19.0194 16.5337 19.1931 16.8452 19.5023C17.1567 19.8115 17.3317 20.2309 17.3317 20.6682V24.2356C17.3289 24.6142 17.4784 24.9782 17.7471 25.2469C18.0158 25.5156 18.3814 25.6667 18.7628 25.6667H21.0505C22.1189 25.6694 23.1446 25.25 23.901 24.5009C24.6575 23.7519 25.0827 22.7348 25.0827 21.6741V11.5113C25.0827 10.6545 24.7001 9.84182 24.0381 9.29211L16.2557 3.12185C14.902 2.03999 12.9623 2.07492 11.649 3.20481L4.0442 9.29211C3.35088 9.82561 2.93649 10.6407 2.91602 11.5113V21.6638C2.91602 23.8745 4.72129 25.6667 6.94822 25.6667H9.18369C9.97578 25.6667 10.6195 25.0323 10.6253 24.2459L10.6566 24.2356Z" fill="#CBA64B"/>
</svg>