<svg width="23" height="23" viewBox="0 0 23 23" fill="none"
    xmlns="http://www.w3.org/2000/svg">
    <path fill-rule="evenodd" clip-rule="evenodd" d="M6.9102 0.077664C6.45328 0.212008 6.18468 0.412359 5.94508 0.797585C5.75601 1.10161 5.7287 1.28975 5.68702 2.57511L5.64041 4.01262L4.9878 4.1423C4.62886 4.21362 3.97858 4.44315 3.54273 4.65227C2.91064 4.95554 2.5972 5.18554 1.99372 5.78874C1.36703 6.41515 1.16211 6.69969 0.799259 7.44693C0.00391546 9.08479 0.00261048 9.09933 0.00121203 16.5438L0 23H0.839069H1.67814L1.67972 16.5904C1.68159 9.50731 1.6855 9.45128 2.26838 8.22577C2.85647 6.98945 4.02445 6.03636 5.28268 5.76608L5.67071 5.68274L5.70222 7.10757L5.73364 8.5325L6.01995 8.8905C6.5796 9.59037 6.46736 9.57462 10.8876 9.57471C15.2055 9.5749 15.2262 9.57257 15.6878 9.024C16.112 8.51982 16.1393 8.23052 16.1097 4.55428L16.0822 1.12361L15.8341 0.748919C15.3503 0.0181838 15.3683 0.0210738 11.0477 0.00196165C8.73704 -0.0082004 7.10067 0.0217261 6.9102 0.077664ZM9.06744 2.3687C8.61593 2.45568 8.57715 2.65454 8.57715 4.88143C8.57715 6.02042 8.61845 7.06105 8.66898 7.19399C8.78095 7.48823 9.11135 7.63208 9.3696 7.49886C9.65013 7.35416 9.69292 7.24536 9.69451 6.67284C9.69535 6.36695 9.74448 6.10917 9.81244 6.05445C9.87659 6.00289 10.4128 5.94294 11.0043 5.92131C11.8807 5.88915 12.1611 5.84235 12.5206 5.66838C13.661 5.11627 13.7868 3.41595 12.7403 2.69882C12.5742 2.58508 12.2141 2.44943 11.94 2.3975C11.4585 2.30614 9.49378 2.28647 9.06744 2.3687ZM9.80778 3.5336C9.64603 3.69536 9.66421 4.58458 9.83202 4.72387C9.92618 4.80199 10.2883 4.82707 11.0059 4.80526C11.9645 4.77598 12.057 4.75678 12.2215 4.55344C12.4637 4.25408 12.4452 3.92498 12.1707 3.65061C11.9559 3.43571 11.88 3.42173 10.9307 3.42173C10.2686 3.42173 9.88106 3.46032 9.80778 3.5336ZM8.54722 11.4628C8.42257 11.5782 7.80269 12.2599 7.16984 12.9778L6.01911 14.283L5.28697 14.4427C4.45695 14.6238 3.94223 14.9003 3.81562 15.2332C3.71381 15.5011 3.70067 18.156 3.80052 18.2919C4.06958 18.6581 5.07795 19.4573 5.27094 19.4573C5.43773 19.4573 5.54391 19.5486 5.67695 19.8069C6.08595 20.6005 6.95318 21.1328 7.83131 21.1292C8.76929 21.1255 9.50227 20.7135 10.0024 19.9088L10.2832 19.4573H13.0978H15.9124L16.0185 19.6902C16.2158 20.1233 16.8727 20.7387 17.3627 20.9495C18.0173 21.2311 18.91 21.1783 19.5179 20.8222C19.9768 20.5532 20.4867 19.995 20.5695 19.671C20.6083 19.5191 20.7489 19.4284 21.1067 19.3243C22.0083 19.0622 22.1887 18.6886 22.1887 17.0834V15.9338L21.87 15.654C21.5077 15.3359 20.7941 15.0471 19.7593 14.8C19.0868 14.6393 18.9683 14.5683 17.5653 13.4837C16.7496 12.853 15.7534 12.0931 15.3515 11.7951L14.621 11.253H11.6975C8.79503 11.253 8.77237 11.2545 8.54722 11.4628ZM8.40169 13.4495C7.88286 14.0423 7.45839 14.5832 7.45839 14.6515C7.45839 14.8555 7.68857 14.889 9.08991 14.889C9.82503 14.889 10.4928 14.8636 10.5739 14.8324C10.6974 14.7851 10.7214 14.5889 10.7214 13.6304C10.7214 12.3233 10.7536 12.3718 9.88572 12.3718H9.34499L8.40169 13.4495ZM12.3296 12.4335C12.1695 12.4981 12.1653 14.6174 12.325 14.7771C12.4058 14.858 13.0621 14.889 14.691 14.889C16.5967 14.889 16.9633 14.867 17.0629 14.7469C17.1278 14.6688 17.1533 14.5771 17.1194 14.5434C17.0857 14.5096 16.4818 14.0086 15.7777 13.43L14.4972 12.378L13.4717 12.3823C12.9077 12.3847 12.3938 12.4077 12.3296 12.4335ZM7.49522 17.507C6.16716 17.8923 6.34373 19.8616 7.71831 19.9937C8.56195 20.0747 9.1355 19.5479 9.13615 18.6914C9.13643 18.333 9.08348 18.1913 8.84919 17.9245C8.688 17.7409 8.41166 17.5555 8.21989 17.5022C7.8342 17.3951 7.88203 17.3947 7.49522 17.507ZM17.876 17.5384C17.3946 17.7116 17.2821 17.8223 17.0987 18.3023C16.8926 18.8422 17.0227 19.3224 17.485 19.7283C18.288 20.4334 19.5776 19.8354 19.5776 18.758C19.5776 17.8504 18.7189 17.235 17.876 17.5384ZM2.70367 21.6016V23H12.4462H22.1887V22.3474V21.6948H18.4818H14.775L14.328 20.9489L13.881 20.2031H13.2335C12.8774 20.2031 12.586 20.2293 12.586 20.2612C12.586 20.2932 12.7739 20.6288 13.0035 21.007L13.4211 21.6948H9.36755H5.3141V20.9489V20.2031H4.00888H2.70367V21.6016Z" fill="#CBA64B"/>
</svg>