<svg width="23" height="23" viewBox="0 0 23 23" fill="none"
    xmlns="http://www.w3.org/2000/svg">
    <path fill-rule="evenodd" clip-rule="evenodd" d="M2.2847 0.0445086C1.21022 0.251192 0.249129 1.22439 0.0401251 2.31735C0.00433307 2.50439 -0.00622043 4.15651 0.00334508 8.06269L0.0168176 13.5455L0.120916 13.8376C0.429302 14.7031 1.04873 15.3375 1.91456 15.6746L2.21733 15.7925L4.69673 15.8056L7.17613 15.8186L7.18915 18.2773C7.20209 20.7181 7.20294 20.7381 7.30627 21.0281C7.61466 21.8937 8.23408 22.5281 9.09992 22.8652L9.40269 22.9831L14.9264 22.9966C18.9318 23.0063 20.5242 22.9959 20.7196 22.9587C21.5409 22.8021 22.3511 22.1577 22.7228 21.3652C22.9987 20.7771 22.9807 21.4178 23 11.4899C22.9823 9.63562 22.9823 9.63562 22.9823 9.63562L22.8956 9.30378C22.7683 8.81653 22.5358 8.43269 22.1162 8.01694C21.8415 7.74478 21.6665 7.61481 21.4009 7.48578C20.8028 7.19524 20.7235 7.188 18.1262 7.1871L15.8022 7.18634V4.83413C15.8022 2.18388 15.7921 2.08617 15.4586 1.48338C15.2148 1.04251 14.6575 0.509917 14.2155 0.295234C13.5751 -0.015892 13.8513 -0.00308383 7.8758 0.00150015C4.91184 0.00379213 2.39585 0.0231167 2.2847 0.0445086ZM2.66018 1.47821C2.37317 1.52118 2.00797 1.71618 1.82582 1.9238C1.74975 2.01049 1.63496 2.19358 1.5707 2.33065L1.45389 2.5799L1.44105 7.70316C1.43301 10.9089 1.44477 12.9332 1.47244 13.1116C1.57348 13.7634 1.9998 14.2161 2.61855 14.3285C2.99915 14.3976 12.8794 14.3958 13.2065 14.3265C13.3374 14.2987 13.5051 14.246 13.5792 14.2093C13.8196 14.0901 14.1358 13.7419 14.2421 13.4792L14.3426 13.2309L14.355 8.06754C14.3629 4.72326 14.3513 2.81759 14.3218 2.65823C14.2276 2.14806 13.9561 1.80183 13.4723 1.57479L13.2199 1.45637L8.05544 1.45004C5.21498 1.44653 2.78709 1.4592 2.66018 1.47821ZM0.0160991 7.90539C0.0160991 10.9333 0.0214881 12.172 0.0280448 10.658C0.0346014 9.1441 0.0346014 6.66673 0.0280448 5.15276C0.0214881 3.63884 0.0160991 4.8775 0.0160991 7.90539ZM5.65382 7.84836C4.9294 9.79534 4.32736 11.4141 4.31595 11.4455C4.29952 11.4908 4.46653 11.5002 5.11627 11.4905L5.93733 11.4782L6.23664 10.5794L6.536 9.68056L7.85771 9.66865L9.17936 9.65679L9.48524 10.5787L9.79111 11.5007H10.641C11.1085 11.5007 11.4902 11.4855 11.4893 11.467C11.4884 11.4484 10.8952 9.83561 10.171 7.88292L8.85427 4.33259L7.91263 4.3205L6.97094 4.30837L5.65382 7.84836ZM7.82937 5.75947C7.75464 5.95797 6.91027 8.517 6.91027 8.54495C6.91027 8.56396 7.34692 8.57951 7.88061 8.57951C8.63795 8.57951 8.84641 8.56719 8.83029 8.52333C8.81893 8.49246 8.60292 7.84526 8.35022 7.08522C8.09752 6.32518 7.88173 5.70329 7.87064 5.70329C7.85959 5.70329 7.841 5.72859 7.82937 5.75947ZM15.8022 12.2422V12.9837H16.3635C16.6723 12.9837 16.9249 12.9903 16.9249 12.9985C16.9249 13.0514 16.6537 13.6627 16.4445 14.0813C16.0755 14.8198 15.8084 15.2163 15.0965 16.0831C15.087 16.0945 14.9944 16.0039 14.8906 15.8816C14.7868 15.7593 14.6514 15.6022 14.5896 15.5324L14.4774 15.4056L14.1335 15.5648C13.9444 15.6524 13.6474 15.7484 13.4734 15.7782L13.1571 15.8325L13.3643 16.1271C13.4782 16.2891 13.6829 16.5598 13.8191 16.7286C13.9553 16.8975 14.048 17.0492 14.0251 17.0658C12.979 17.8219 11.6126 18.4804 10.4131 18.8061C10.2526 18.8497 10.1148 18.8903 10.1069 18.8963C10.099 18.9023 10.1871 19.0356 10.3026 19.1924C10.4181 19.3493 10.5916 19.6216 10.6882 19.7975L10.8637 20.1172L11.3907 19.9277C12.0443 19.6926 12.3766 19.5517 12.9505 19.2664C13.6419 18.9226 14.574 18.3389 14.888 18.0531L14.9843 17.9654L15.4269 18.2979C16.5167 19.1166 17.582 19.6252 19.1297 20.0656C19.1796 20.0798 19.2536 20.0003 19.3729 19.8044C19.4673 19.6494 19.6622 19.3666 19.8062 19.176L20.0678 18.8293L19.8773 18.7803C18.9766 18.5486 18.3757 18.3297 17.6434 17.9665C17.0675 17.6809 16.0716 17.0595 16.0716 16.9857C16.0716 16.9667 16.2132 16.7815 16.3862 16.5741C17.0607 15.7656 17.7749 14.5447 18.2102 13.4556L18.3899 13.0062L19.2516 12.994L20.1134 12.9818V12.2412V11.5007H17.9578H15.8022V12.2422Z" fill="#8A8A8A"/>
</svg>